# compile vhdl design source files
vhdl xil_defaultlib  \
"../../../../Project_ALU.srcs/sources_1/new/alu.vhd" \
"../../../../Project_ALU.srcs/sources_1/new/alu_control.vhd" \
"../../../../Project_ALU.srcs/sources_1/new/alu_datapath.vhd" \
"../../../../Project_ALU.srcs/sources_1/imports/DesignFiles/clkdiv.vhd" \
"../../../../Project_ALU.srcs/sources_1/imports/DesignFiles/disp7.vhd" \
"../../../../Project_ALU.srcs/sources_1/imports/DesignFiles/hex2disp.vhd" \
"../../../../Project_ALU.srcs/sources_1/imports/DesignFiles/fpga_basicIO.vhd" \

# Do not sort compile order
nosort
