# compile vhdl design source files
vhdl xil_defaultlib  \
"../../../../Project_ALU.srcs/sources_1/new/alu.vhd" \
"../../../../Project_ALU.srcs/sources_1/new/alu_control.vhd" \
"../../../../Project_ALU.srcs/sources_1/new/alu_datapath.vhd" \
"../../../../Project_ALU.srcs/sim_1/new/alu_tb.vhd" \

# Do not sort compile order
nosort
