#-----------------------------------------------------------
# Webtalk v2018.2 (64-bit)
# SW Build 2258646 on Thu Jun 14 20:03:12 MDT 2018
# IP Build 2256618 on Thu Jun 14 22:10:49 MDT 2018
# Start of session at: Tue Oct 23 11:50:18 2018
# Process ID: 27932
# Current directory: C:/Users/tiago/Desktop/Programing/git-repos/psd/Project_ALU/Project_ALU.sim/sim_1/behav/xsim
# Command line: wbtcv.exe -mode batch -source C:/Users/tiago/Desktop/Programing/git-repos/psd/Project_ALU/Project_ALU.sim/sim_1/behav/xsim/xsim.dir/alu_tb_behav/webtalk/xsim_webtalk.tcl -notrace
# Log file: C:/Users/tiago/Desktop/Programing/git-repos/psd/Project_ALU/Project_ALU.sim/sim_1/behav/xsim/webtalk.log
# Journal file: C:/Users/tiago/Desktop/Programing/git-repos/psd/Project_ALU/Project_ALU.sim/sim_1/behav/xsim\webtalk.jou
#-----------------------------------------------------------
source C:/Users/tiago/Desktop/Programing/git-repos/psd/Project_ALU/Project_ALU.sim/sim_1/behav/xsim/xsim.dir/alu_tb_behav/webtalk/xsim_webtalk.tcl -notrace
INFO: [Common 17-186] 'C:/Users/tiago/Desktop/Programing/git-repos/psd/Project_ALU/Project_ALU.sim/sim_1/behav/xsim/xsim.dir/alu_tb_behav/webtalk/usage_statistics_ext_xsim.xml' has been successfully sent to Xilinx on Tue Oct 23 11:50:22 2018. For additional details about this file, please refer to the WebTalk help file at C:/Xilinx/Vivado/2018.2/doc/webtalk_introduction.html.
INFO: [Common 17-206] Exiting Webtalk at Tue Oct 23 11:50:22 2018...
