Copyright 1986-2018 Xilinx, Inc. All Rights Reserved.
-----------------------------------------------------------------------------------------------------------------------------------------------------------------------------------------------------------
| Tool Version : Vivado v.2018.2 (win64) Build 2258646 Thu Jun 14 20:03:12 MDT 2018
| Date         : Fri Oct 19 13:24:18 2018
| Host         : LAPTOP-TIAGO running 64-bit major release  (build 9200)
| Command      : report_timing_summary -max_paths 10 -file fpga_basicIO_timing_summary_routed.rpt -pb fpga_basicIO_timing_summary_routed.pb -rpx fpga_basicIO_timing_summary_routed.rpx -warn_on_violation
| Design       : fpga_basicIO
| Device       : 7a35t-cpg236
| Speed File   : -1  PRODUCTION 1.22 2018-03-21
-----------------------------------------------------------------------------------------------------------------------------------------------------------------------------------------------------------

Timing Summary Report

------------------------------------------------------------------------------------------------
| Timer Settings
| --------------
------------------------------------------------------------------------------------------------

  Enable Multi Corner Analysis               :  Yes
  Enable Pessimism Removal                   :  Yes
  Pessimism Removal Resolution               :  Nearest Common Node
  Enable Input Delay Default Clock           :  No
  Enable Preset / Clear Arcs                 :  No
  Disable Flight Delays                      :  No
  Ignore I/O Paths                           :  No
  Timing Early Launch at Borrowing Latches   :  false

  Corner  Analyze    Analyze    
  Name    Max Paths  Min Paths  
  ------  ---------  ---------  
  Slow    Yes        Yes        
  Fast    Yes        Yes        



check_timing report

Table of Contents
-----------------
1. checking no_clock
2. checking constant_clock
3. checking pulse_width_clock
4. checking unconstrained_internal_endpoints
5. checking no_input_delay
6. checking no_output_delay
7. checking multiple_clock
8. checking generated_clocks
9. checking loops
10. checking partial_input_delay
11. checking partial_output_delay
12. checking latch_loops

1. checking no_clock
--------------------
 There are 2 register/latch pins with no clock driven by root clock pin: inst_clkdiv/cnt_reg[16]/Q (HIGH)

 There are 21 register/latch pins with no clock driven by root clock pin: inst_clkdiv/cnt_reg[23]/Q (HIGH)


2. checking constant_clock
--------------------------
 There are 0 register/latch pins with constant_clock.


3. checking pulse_width_clock
-----------------------------
 There are 0 register/latch pins which need pulse_width check


4. checking unconstrained_internal_endpoints
--------------------------------------------
 There are 23 pins that are not constrained for maximum delay. (HIGH)

 There are 0 pins that are not constrained for maximum delay due to constant clock.


5. checking no_input_delay
--------------------------
 There are 21 input ports with no input delay specified. (HIGH)

 There are 0 input ports with no input delay but user has a false path constraint.


6. checking no_output_delay
---------------------------
 There are 28 ports with no output delay specified. (HIGH)

 There are 0 ports with no output delay but user has a false path constraint

 There are 0 ports with no output delay but with a timing clock defined on it or propagating through it


7. checking multiple_clock
--------------------------
 There are 0 register/latch pins with multiple clocks.


8. checking generated_clocks
----------------------------
 There are 0 generated clocks that are not connected to a clock source.


9. checking loops
-----------------
 There are 0 combinational loops in the design.


10. checking partial_input_delay
--------------------------------
 There are 0 input ports with partial input delay specified.


11. checking partial_output_delay
---------------------------------
 There are 0 ports with partial output delay specified.


12. checking latch_loops
------------------------
 There are 0 combinational latch loops in the design through latch input



------------------------------------------------------------------------------------------------
| Design Timing Summary
| ---------------------
------------------------------------------------------------------------------------------------

    WNS(ns)      TNS(ns)  TNS Failing Endpoints  TNS Total Endpoints      WHS(ns)      THS(ns)  THS Failing Endpoints  THS Total Endpoints     WPWS(ns)     TPWS(ns)  TPWS Failing Endpoints  TPWS Total Endpoints  
    -------      -------  ---------------------  -------------------      -------      -------  ---------------------  -------------------     --------     --------  ----------------------  --------------------  
      6.330        0.000                      0                   67        0.219        0.000                      0                   67        4.500        0.000                       0                    36  


All user specified timing constraints are met.


------------------------------------------------------------------------------------------------
| Clock Summary
| -------------
------------------------------------------------------------------------------------------------

Clock        Waveform(ns)       Period(ns)      Frequency(MHz)
-----        ------------       ----------      --------------
sys_clk_pin  {0.000 5.000}      10.000          100.000         


------------------------------------------------------------------------------------------------
| Intra Clock Table
| -----------------
------------------------------------------------------------------------------------------------

Clock             WNS(ns)      TNS(ns)  TNS Failing Endpoints  TNS Total Endpoints      WHS(ns)      THS(ns)  THS Failing Endpoints  THS Total Endpoints     WPWS(ns)     TPWS(ns)  TPWS Failing Endpoints  TPWS Total Endpoints  
-----             -------      -------  ---------------------  -------------------      -------      -------  ---------------------  -------------------     --------     --------  ----------------------  --------------------  
sys_clk_pin         6.330        0.000                      0                   67        0.219        0.000                      0                   67        4.500        0.000                       0                    36  


------------------------------------------------------------------------------------------------
| Inter Clock Table
| -----------------
------------------------------------------------------------------------------------------------

From Clock    To Clock          WNS(ns)      TNS(ns)  TNS Failing Endpoints  TNS Total Endpoints      WHS(ns)      THS(ns)  THS Failing Endpoints  THS Total Endpoints  
----------    --------          -------      -------  ---------------------  -------------------      -------      -------  ---------------------  -------------------  


------------------------------------------------------------------------------------------------
| Other Path Groups Table
| -----------------------
------------------------------------------------------------------------------------------------

Path Group    From Clock    To Clock          WNS(ns)      TNS(ns)  TNS Failing Endpoints  TNS Total Endpoints      WHS(ns)      THS(ns)  THS Failing Endpoints  THS Total Endpoints  
----------    ----------    --------          -------      -------  ---------------------  -------------------      -------      -------  ---------------------  -------------------  


------------------------------------------------------------------------------------------------
| Timing Details
| --------------
------------------------------------------------------------------------------------------------


---------------------------------------------------------------------------------------------------
From Clock:  sys_clk_pin
  To Clock:  sys_clk_pin

Setup :            0  Failing Endpoints,  Worst Slack        6.330ns,  Total Violation        0.000ns
Hold  :            0  Failing Endpoints,  Worst Slack        0.219ns,  Total Violation        0.000ns
PW    :            0  Failing Endpoints,  Worst Slack        4.500ns,  Total Violation        0.000ns
---------------------------------------------------------------------------------------------------


Max Delay Paths
--------------------------------------------------------------------------------------
Slack (MET) :             6.330ns  (required time - arrival time)
  Source:                 inst_circuito/inst_datapath/accum_reg[1]/C
                            (rising edge-triggered cell FDRE clocked by sys_clk_pin  {rise@0.000ns fall@5.000ns period=10.000ns})
  Destination:            inst_circuito/inst_datapath/accum_reg[7]/D
                            (rising edge-triggered cell FDRE clocked by sys_clk_pin  {rise@0.000ns fall@5.000ns period=10.000ns})
  Path Group:             sys_clk_pin
  Path Type:              Setup (Max at Slow Process Corner)
  Requirement:            10.000ns  (sys_clk_pin rise@10.000ns - sys_clk_pin rise@0.000ns)
  Data Path Delay:        3.686ns  (logic 1.749ns (47.452%)  route 1.937ns (52.548%))
  Logic Levels:           4  (CARRY4=2 LUT4=2)
  Clock Path Skew:        -0.026ns (DCD - SCD + CPR)
    Destination Clock Delay (DCD):    4.787ns = ( 14.787 - 10.000 ) 
    Source Clock Delay      (SCD):    5.087ns
    Clock Pessimism Removal (CPR):    0.274ns
  Clock Uncertainty:      0.035ns  ((TSJ^2 + TIJ^2)^1/2 + DJ) / 2 + PE
    Total System Jitter     (TSJ):    0.071ns
    Total Input Jitter      (TIJ):    0.000ns
    Discrete Jitter          (DJ):    0.000ns
    Phase Error              (PE):    0.000ns

    Location             Delay type                Incr(ns)  Path(ns)    Netlist Resource(s)
  -------------------------------------------------------------------    -------------------
                         (clock sys_clk_pin rise edge)
                                                      0.000     0.000 r  
    W5                                                0.000     0.000 r  clk (IN)
                         net (fo=0)                   0.000     0.000    clk
    W5                   IBUF (Prop_ibuf_I_O)         1.458     1.458 r  clk_IBUF_inst/O
                         net (fo=1, routed)           1.967     3.425    clk_IBUF
    BUFGCTRL_X0Y0        BUFG (Prop_bufg_I_O)         0.096     3.521 r  clk_IBUF_BUFG_inst/O
                         net (fo=35, routed)          1.566     5.087    inst_circuito/inst_datapath/clk_IBUF_BUFG
    SLICE_X13Y11         FDRE                                         r  inst_circuito/inst_datapath/accum_reg[1]/C
  -------------------------------------------------------------------    -------------------
    SLICE_X13Y11         FDRE (Prop_fdre_C_Q)         0.456     5.543 r  inst_circuito/inst_datapath/accum_reg[1]/Q
                         net (fo=10, routed)          0.991     6.534    inst_circuito/inst_control/accum_reg[7][0]
    SLICE_X13Y12         LUT4 (Prop_lut4_I3_O)        0.124     6.658 r  inst_circuito/inst_control/__5_carry_i_4/O
                         net (fo=1, routed)           0.000     6.658    inst_circuito/inst_datapath/sw_reg_reg[3][0]
    SLICE_X13Y12         CARRY4 (Prop_carry4_S[1]_CO[3])
                                                      0.550     7.208 r  inst_circuito/inst_datapath/__5_carry/CO[3]
                         net (fo=1, routed)           0.000     7.208    inst_circuito/inst_datapath/__5_carry_n_0
    SLICE_X13Y13         CARRY4 (Prop_carry4_CI_O[3])
                                                      0.313     7.521 r  inst_circuito/inst_datapath/__5_carry__0/O[3]
                         net (fo=1, routed)           0.946     8.467    inst_circuito/inst_datapath/addsubsg[7]
    SLICE_X12Y12         LUT4 (Prop_lut4_I3_O)        0.306     8.773 r  inst_circuito/inst_datapath/accum[7]_i_2/O
                         net (fo=1, routed)           0.000     8.773    inst_circuito/inst_datapath/res_alu[7]
    SLICE_X12Y12         FDRE                                         r  inst_circuito/inst_datapath/accum_reg[7]/D
  -------------------------------------------------------------------    -------------------

                         (clock sys_clk_pin rise edge)
                                                     10.000    10.000 r  
    W5                                                0.000    10.000 r  clk (IN)
                         net (fo=0)                   0.000    10.000    clk
    W5                   IBUF (Prop_ibuf_I_O)         1.388    11.388 r  clk_IBUF_inst/O
                         net (fo=1, routed)           1.862    13.250    clk_IBUF
    BUFGCTRL_X0Y0        BUFG (Prop_bufg_I_O)         0.091    13.341 r  clk_IBUF_BUFG_inst/O
                         net (fo=35, routed)          1.446    14.787    inst_circuito/inst_datapath/clk_IBUF_BUFG
    SLICE_X12Y12         FDRE                                         r  inst_circuito/inst_datapath/accum_reg[7]/C
                         clock pessimism              0.274    15.061    
                         clock uncertainty           -0.035    15.026    
    SLICE_X12Y12         FDRE (Setup_fdre_C_D)        0.077    15.103    inst_circuito/inst_datapath/accum_reg[7]
  -------------------------------------------------------------------
                         required time                         15.103    
                         arrival time                          -8.773    
  -------------------------------------------------------------------
                         slack                                  6.330    

Slack (MET) :             6.392ns  (required time - arrival time)
  Source:                 inst_clkdiv/cnt_reg[11]/C
                            (rising edge-triggered cell FDRE clocked by sys_clk_pin  {rise@0.000ns fall@5.000ns period=10.000ns})
  Destination:            inst_clkdiv/cnt_reg[20]/R
                            (rising edge-triggered cell FDRE clocked by sys_clk_pin  {rise@0.000ns fall@5.000ns period=10.000ns})
  Path Group:             sys_clk_pin
  Path Type:              Setup (Max at Slow Process Corner)
  Requirement:            10.000ns  (sys_clk_pin rise@10.000ns - sys_clk_pin rise@0.000ns)
  Data Path Delay:        3.119ns  (logic 0.704ns (22.568%)  route 2.415ns (77.432%))
  Logic Levels:           2  (LUT4=1 LUT6=1)
  Clock Path Skew:        -0.024ns (DCD - SCD + CPR)
    Destination Clock Delay (DCD):    4.787ns = ( 14.787 - 10.000 ) 
    Source Clock Delay      (SCD):    5.086ns
    Clock Pessimism Removal (CPR):    0.275ns
  Clock Uncertainty:      0.035ns  ((TSJ^2 + TIJ^2)^1/2 + DJ) / 2 + PE
    Total System Jitter     (TSJ):    0.071ns
    Total Input Jitter      (TIJ):    0.000ns
    Discrete Jitter          (DJ):    0.000ns
    Phase Error              (PE):    0.000ns

    Location             Delay type                Incr(ns)  Path(ns)    Netlist Resource(s)
  -------------------------------------------------------------------    -------------------
                         (clock sys_clk_pin rise edge)
                                                      0.000     0.000 r  
    W5                                                0.000     0.000 r  clk (IN)
                         net (fo=0)                   0.000     0.000    clk
    W5                   IBUF (Prop_ibuf_I_O)         1.458     1.458 r  clk_IBUF_inst/O
                         net (fo=1, routed)           1.967     3.425    clk_IBUF
    BUFGCTRL_X0Y0        BUFG (Prop_bufg_I_O)         0.096     3.521 r  clk_IBUF_BUFG_inst/O
                         net (fo=35, routed)          1.565     5.086    inst_clkdiv/clk
    SLICE_X36Y45         FDRE                                         r  inst_clkdiv/cnt_reg[11]/C
  -------------------------------------------------------------------    -------------------
    SLICE_X36Y45         FDRE (Prop_fdre_C_Q)         0.456     5.542 f  inst_clkdiv/cnt_reg[11]/Q
                         net (fo=2, routed)           1.097     6.639    inst_clkdiv/cnt_reg[11]
    SLICE_X37Y45         LUT6 (Prop_lut6_I5_O)        0.124     6.763 f  inst_clkdiv/cnt[0]_i_3/O
                         net (fo=1, routed)           0.665     7.429    inst_clkdiv/cnt[0]_i_3_n_0
    SLICE_X37Y45         LUT4 (Prop_lut4_I0_O)        0.124     7.553 r  inst_clkdiv/cnt[0]_i_1/O
                         net (fo=24, routed)          0.653     8.206    inst_clkdiv/clear
    SLICE_X36Y48         FDRE                                         r  inst_clkdiv/cnt_reg[20]/R
  -------------------------------------------------------------------    -------------------

                         (clock sys_clk_pin rise edge)
                                                     10.000    10.000 r  
    W5                                                0.000    10.000 r  clk (IN)
                         net (fo=0)                   0.000    10.000    clk
    W5                   IBUF (Prop_ibuf_I_O)         1.388    11.388 r  clk_IBUF_inst/O
                         net (fo=1, routed)           1.862    13.250    clk_IBUF
    BUFGCTRL_X0Y0        BUFG (Prop_bufg_I_O)         0.091    13.341 r  clk_IBUF_BUFG_inst/O
                         net (fo=35, routed)          1.446    14.787    inst_clkdiv/clk
    SLICE_X36Y48         FDRE                                         r  inst_clkdiv/cnt_reg[20]/C
                         clock pessimism              0.275    15.062    
                         clock uncertainty           -0.035    15.027    
    SLICE_X36Y48         FDRE (Setup_fdre_C_R)       -0.429    14.598    inst_clkdiv/cnt_reg[20]
  -------------------------------------------------------------------
                         required time                         14.598    
                         arrival time                          -8.206    
  -------------------------------------------------------------------
                         slack                                  6.392    

Slack (MET) :             6.392ns  (required time - arrival time)
  Source:                 inst_clkdiv/cnt_reg[11]/C
                            (rising edge-triggered cell FDRE clocked by sys_clk_pin  {rise@0.000ns fall@5.000ns period=10.000ns})
  Destination:            inst_clkdiv/cnt_reg[21]/R
                            (rising edge-triggered cell FDRE clocked by sys_clk_pin  {rise@0.000ns fall@5.000ns period=10.000ns})
  Path Group:             sys_clk_pin
  Path Type:              Setup (Max at Slow Process Corner)
  Requirement:            10.000ns  (sys_clk_pin rise@10.000ns - sys_clk_pin rise@0.000ns)
  Data Path Delay:        3.119ns  (logic 0.704ns (22.568%)  route 2.415ns (77.432%))
  Logic Levels:           2  (LUT4=1 LUT6=1)
  Clock Path Skew:        -0.024ns (DCD - SCD + CPR)
    Destination Clock Delay (DCD):    4.787ns = ( 14.787 - 10.000 ) 
    Source Clock Delay      (SCD):    5.086ns
    Clock Pessimism Removal (CPR):    0.275ns
  Clock Uncertainty:      0.035ns  ((TSJ^2 + TIJ^2)^1/2 + DJ) / 2 + PE
    Total System Jitter     (TSJ):    0.071ns
    Total Input Jitter      (TIJ):    0.000ns
    Discrete Jitter          (DJ):    0.000ns
    Phase Error              (PE):    0.000ns

    Location             Delay type                Incr(ns)  Path(ns)    Netlist Resource(s)
  -------------------------------------------------------------------    -------------------
                         (clock sys_clk_pin rise edge)
                                                      0.000     0.000 r  
    W5                                                0.000     0.000 r  clk (IN)
                         net (fo=0)                   0.000     0.000    clk
    W5                   IBUF (Prop_ibuf_I_O)         1.458     1.458 r  clk_IBUF_inst/O
                         net (fo=1, routed)           1.967     3.425    clk_IBUF
    BUFGCTRL_X0Y0        BUFG (Prop_bufg_I_O)         0.096     3.521 r  clk_IBUF_BUFG_inst/O
                         net (fo=35, routed)          1.565     5.086    inst_clkdiv/clk
    SLICE_X36Y45         FDRE                                         r  inst_clkdiv/cnt_reg[11]/C
  -------------------------------------------------------------------    -------------------
    SLICE_X36Y45         FDRE (Prop_fdre_C_Q)         0.456     5.542 f  inst_clkdiv/cnt_reg[11]/Q
                         net (fo=2, routed)           1.097     6.639    inst_clkdiv/cnt_reg[11]
    SLICE_X37Y45         LUT6 (Prop_lut6_I5_O)        0.124     6.763 f  inst_clkdiv/cnt[0]_i_3/O
                         net (fo=1, routed)           0.665     7.429    inst_clkdiv/cnt[0]_i_3_n_0
    SLICE_X37Y45         LUT4 (Prop_lut4_I0_O)        0.124     7.553 r  inst_clkdiv/cnt[0]_i_1/O
                         net (fo=24, routed)          0.653     8.206    inst_clkdiv/clear
    SLICE_X36Y48         FDRE                                         r  inst_clkdiv/cnt_reg[21]/R
  -------------------------------------------------------------------    -------------------

                         (clock sys_clk_pin rise edge)
                                                     10.000    10.000 r  
    W5                                                0.000    10.000 r  clk (IN)
                         net (fo=0)                   0.000    10.000    clk
    W5                   IBUF (Prop_ibuf_I_O)         1.388    11.388 r  clk_IBUF_inst/O
                         net (fo=1, routed)           1.862    13.250    clk_IBUF
    BUFGCTRL_X0Y0        BUFG (Prop_bufg_I_O)         0.091    13.341 r  clk_IBUF_BUFG_inst/O
                         net (fo=35, routed)          1.446    14.787    inst_clkdiv/clk
    SLICE_X36Y48         FDRE                                         r  inst_clkdiv/cnt_reg[21]/C
                         clock pessimism              0.275    15.062    
                         clock uncertainty           -0.035    15.027    
    SLICE_X36Y48         FDRE (Setup_fdre_C_R)       -0.429    14.598    inst_clkdiv/cnt_reg[21]
  -------------------------------------------------------------------
                         required time                         14.598    
                         arrival time                          -8.206    
  -------------------------------------------------------------------
                         slack                                  6.392    

Slack (MET) :             6.392ns  (required time - arrival time)
  Source:                 inst_clkdiv/cnt_reg[11]/C
                            (rising edge-triggered cell FDRE clocked by sys_clk_pin  {rise@0.000ns fall@5.000ns period=10.000ns})
  Destination:            inst_clkdiv/cnt_reg[22]/R
                            (rising edge-triggered cell FDRE clocked by sys_clk_pin  {rise@0.000ns fall@5.000ns period=10.000ns})
  Path Group:             sys_clk_pin
  Path Type:              Setup (Max at Slow Process Corner)
  Requirement:            10.000ns  (sys_clk_pin rise@10.000ns - sys_clk_pin rise@0.000ns)
  Data Path Delay:        3.119ns  (logic 0.704ns (22.568%)  route 2.415ns (77.432%))
  Logic Levels:           2  (LUT4=1 LUT6=1)
  Clock Path Skew:        -0.024ns (DCD - SCD + CPR)
    Destination Clock Delay (DCD):    4.787ns = ( 14.787 - 10.000 ) 
    Source Clock Delay      (SCD):    5.086ns
    Clock Pessimism Removal (CPR):    0.275ns
  Clock Uncertainty:      0.035ns  ((TSJ^2 + TIJ^2)^1/2 + DJ) / 2 + PE
    Total System Jitter     (TSJ):    0.071ns
    Total Input Jitter      (TIJ):    0.000ns
    Discrete Jitter          (DJ):    0.000ns
    Phase Error              (PE):    0.000ns

    Location             Delay type                Incr(ns)  Path(ns)    Netlist Resource(s)
  -------------------------------------------------------------------    -------------------
                         (clock sys_clk_pin rise edge)
                                                      0.000     0.000 r  
    W5                                                0.000     0.000 r  clk (IN)
                         net (fo=0)                   0.000     0.000    clk
    W5                   IBUF (Prop_ibuf_I_O)         1.458     1.458 r  clk_IBUF_inst/O
                         net (fo=1, routed)           1.967     3.425    clk_IBUF
    BUFGCTRL_X0Y0        BUFG (Prop_bufg_I_O)         0.096     3.521 r  clk_IBUF_BUFG_inst/O
                         net (fo=35, routed)          1.565     5.086    inst_clkdiv/clk
    SLICE_X36Y45         FDRE                                         r  inst_clkdiv/cnt_reg[11]/C
  -------------------------------------------------------------------    -------------------
    SLICE_X36Y45         FDRE (Prop_fdre_C_Q)         0.456     5.542 f  inst_clkdiv/cnt_reg[11]/Q
                         net (fo=2, routed)           1.097     6.639    inst_clkdiv/cnt_reg[11]
    SLICE_X37Y45         LUT6 (Prop_lut6_I5_O)        0.124     6.763 f  inst_clkdiv/cnt[0]_i_3/O
                         net (fo=1, routed)           0.665     7.429    inst_clkdiv/cnt[0]_i_3_n_0
    SLICE_X37Y45         LUT4 (Prop_lut4_I0_O)        0.124     7.553 r  inst_clkdiv/cnt[0]_i_1/O
                         net (fo=24, routed)          0.653     8.206    inst_clkdiv/clear
    SLICE_X36Y48         FDRE                                         r  inst_clkdiv/cnt_reg[22]/R
  -------------------------------------------------------------------    -------------------

                         (clock sys_clk_pin rise edge)
                                                     10.000    10.000 r  
    W5                                                0.000    10.000 r  clk (IN)
                         net (fo=0)                   0.000    10.000    clk
    W5                   IBUF (Prop_ibuf_I_O)         1.388    11.388 r  clk_IBUF_inst/O
                         net (fo=1, routed)           1.862    13.250    clk_IBUF
    BUFGCTRL_X0Y0        BUFG (Prop_bufg_I_O)         0.091    13.341 r  clk_IBUF_BUFG_inst/O
                         net (fo=35, routed)          1.446    14.787    inst_clkdiv/clk
    SLICE_X36Y48         FDRE                                         r  inst_clkdiv/cnt_reg[22]/C
                         clock pessimism              0.275    15.062    
                         clock uncertainty           -0.035    15.027    
    SLICE_X36Y48         FDRE (Setup_fdre_C_R)       -0.429    14.598    inst_clkdiv/cnt_reg[22]
  -------------------------------------------------------------------
                         required time                         14.598    
                         arrival time                          -8.206    
  -------------------------------------------------------------------
                         slack                                  6.392    

Slack (MET) :             6.392ns  (required time - arrival time)
  Source:                 inst_clkdiv/cnt_reg[11]/C
                            (rising edge-triggered cell FDRE clocked by sys_clk_pin  {rise@0.000ns fall@5.000ns period=10.000ns})
  Destination:            inst_clkdiv/cnt_reg[23]/R
                            (rising edge-triggered cell FDRE clocked by sys_clk_pin  {rise@0.000ns fall@5.000ns period=10.000ns})
  Path Group:             sys_clk_pin
  Path Type:              Setup (Max at Slow Process Corner)
  Requirement:            10.000ns  (sys_clk_pin rise@10.000ns - sys_clk_pin rise@0.000ns)
  Data Path Delay:        3.119ns  (logic 0.704ns (22.568%)  route 2.415ns (77.432%))
  Logic Levels:           2  (LUT4=1 LUT6=1)
  Clock Path Skew:        -0.024ns (DCD - SCD + CPR)
    Destination Clock Delay (DCD):    4.787ns = ( 14.787 - 10.000 ) 
    Source Clock Delay      (SCD):    5.086ns
    Clock Pessimism Removal (CPR):    0.275ns
  Clock Uncertainty:      0.035ns  ((TSJ^2 + TIJ^2)^1/2 + DJ) / 2 + PE
    Total System Jitter     (TSJ):    0.071ns
    Total Input Jitter      (TIJ):    0.000ns
    Discrete Jitter          (DJ):    0.000ns
    Phase Error              (PE):    0.000ns

    Location             Delay type                Incr(ns)  Path(ns)    Netlist Resource(s)
  -------------------------------------------------------------------    -------------------
                         (clock sys_clk_pin rise edge)
                                                      0.000     0.000 r  
    W5                                                0.000     0.000 r  clk (IN)
                         net (fo=0)                   0.000     0.000    clk
    W5                   IBUF (Prop_ibuf_I_O)         1.458     1.458 r  clk_IBUF_inst/O
                         net (fo=1, routed)           1.967     3.425    clk_IBUF
    BUFGCTRL_X0Y0        BUFG (Prop_bufg_I_O)         0.096     3.521 r  clk_IBUF_BUFG_inst/O
                         net (fo=35, routed)          1.565     5.086    inst_clkdiv/clk
    SLICE_X36Y45         FDRE                                         r  inst_clkdiv/cnt_reg[11]/C
  -------------------------------------------------------------------    -------------------
    SLICE_X36Y45         FDRE (Prop_fdre_C_Q)         0.456     5.542 f  inst_clkdiv/cnt_reg[11]/Q
                         net (fo=2, routed)           1.097     6.639    inst_clkdiv/cnt_reg[11]
    SLICE_X37Y45         LUT6 (Prop_lut6_I5_O)        0.124     6.763 f  inst_clkdiv/cnt[0]_i_3/O
                         net (fo=1, routed)           0.665     7.429    inst_clkdiv/cnt[0]_i_3_n_0
    SLICE_X37Y45         LUT4 (Prop_lut4_I0_O)        0.124     7.553 r  inst_clkdiv/cnt[0]_i_1/O
                         net (fo=24, routed)          0.653     8.206    inst_clkdiv/clear
    SLICE_X36Y48         FDRE                                         r  inst_clkdiv/cnt_reg[23]/R
  -------------------------------------------------------------------    -------------------

                         (clock sys_clk_pin rise edge)
                                                     10.000    10.000 r  
    W5                                                0.000    10.000 r  clk (IN)
                         net (fo=0)                   0.000    10.000    clk
    W5                   IBUF (Prop_ibuf_I_O)         1.388    11.388 r  clk_IBUF_inst/O
                         net (fo=1, routed)           1.862    13.250    clk_IBUF
    BUFGCTRL_X0Y0        BUFG (Prop_bufg_I_O)         0.091    13.341 r  clk_IBUF_BUFG_inst/O
                         net (fo=35, routed)          1.446    14.787    inst_clkdiv/clk
    SLICE_X36Y48         FDRE                                         r  inst_clkdiv/cnt_reg[23]/C
                         clock pessimism              0.275    15.062    
                         clock uncertainty           -0.035    15.027    
    SLICE_X36Y48         FDRE (Setup_fdre_C_R)       -0.429    14.598    inst_clkdiv/cnt_reg[23]
  -------------------------------------------------------------------
                         required time                         14.598    
                         arrival time                          -8.206    
  -------------------------------------------------------------------
                         slack                                  6.392    

Slack (MET) :             6.414ns  (required time - arrival time)
  Source:                 inst_clkdiv/cnt_reg[11]/C
                            (rising edge-triggered cell FDRE clocked by sys_clk_pin  {rise@0.000ns fall@5.000ns period=10.000ns})
  Destination:            inst_clkdiv/cnt_reg[10]/R
                            (rising edge-triggered cell FDRE clocked by sys_clk_pin  {rise@0.000ns fall@5.000ns period=10.000ns})
  Path Group:             sys_clk_pin
  Path Type:              Setup (Max at Slow Process Corner)
  Requirement:            10.000ns  (sys_clk_pin rise@10.000ns - sys_clk_pin rise@0.000ns)
  Data Path Delay:        3.121ns  (logic 0.704ns (22.555%)  route 2.417ns (77.445%))
  Logic Levels:           2  (LUT4=1 LUT6=1)
  Clock Path Skew:        0.000ns (DCD - SCD + CPR)
    Destination Clock Delay (DCD):    4.786ns = ( 14.786 - 10.000 ) 
    Source Clock Delay      (SCD):    5.086ns
    Clock Pessimism Removal (CPR):    0.300ns
  Clock Uncertainty:      0.035ns  ((TSJ^2 + TIJ^2)^1/2 + DJ) / 2 + PE
    Total System Jitter     (TSJ):    0.071ns
    Total Input Jitter      (TIJ):    0.000ns
    Discrete Jitter          (DJ):    0.000ns
    Phase Error              (PE):    0.000ns

    Location             Delay type                Incr(ns)  Path(ns)    Netlist Resource(s)
  -------------------------------------------------------------------    -------------------
                         (clock sys_clk_pin rise edge)
                                                      0.000     0.000 r  
    W5                                                0.000     0.000 r  clk (IN)
                         net (fo=0)                   0.000     0.000    clk
    W5                   IBUF (Prop_ibuf_I_O)         1.458     1.458 r  clk_IBUF_inst/O
                         net (fo=1, routed)           1.967     3.425    clk_IBUF
    BUFGCTRL_X0Y0        BUFG (Prop_bufg_I_O)         0.096     3.521 r  clk_IBUF_BUFG_inst/O
                         net (fo=35, routed)          1.565     5.086    inst_clkdiv/clk
    SLICE_X36Y45         FDRE                                         r  inst_clkdiv/cnt_reg[11]/C
  -------------------------------------------------------------------    -------------------
    SLICE_X36Y45         FDRE (Prop_fdre_C_Q)         0.456     5.542 f  inst_clkdiv/cnt_reg[11]/Q
                         net (fo=2, routed)           1.097     6.639    inst_clkdiv/cnt_reg[11]
    SLICE_X37Y45         LUT6 (Prop_lut6_I5_O)        0.124     6.763 f  inst_clkdiv/cnt[0]_i_3/O
                         net (fo=1, routed)           0.665     7.429    inst_clkdiv/cnt[0]_i_3_n_0
    SLICE_X37Y45         LUT4 (Prop_lut4_I0_O)        0.124     7.553 r  inst_clkdiv/cnt[0]_i_1/O
                         net (fo=24, routed)          0.655     8.208    inst_clkdiv/clear
    SLICE_X36Y45         FDRE                                         r  inst_clkdiv/cnt_reg[10]/R
  -------------------------------------------------------------------    -------------------

                         (clock sys_clk_pin rise edge)
                                                     10.000    10.000 r  
    W5                                                0.000    10.000 r  clk (IN)
                         net (fo=0)                   0.000    10.000    clk
    W5                   IBUF (Prop_ibuf_I_O)         1.388    11.388 r  clk_IBUF_inst/O
                         net (fo=1, routed)           1.862    13.250    clk_IBUF
    BUFGCTRL_X0Y0        BUFG (Prop_bufg_I_O)         0.091    13.341 r  clk_IBUF_BUFG_inst/O
                         net (fo=35, routed)          1.445    14.786    inst_clkdiv/clk
    SLICE_X36Y45         FDRE                                         r  inst_clkdiv/cnt_reg[10]/C
                         clock pessimism              0.300    15.086    
                         clock uncertainty           -0.035    15.051    
    SLICE_X36Y45         FDRE (Setup_fdre_C_R)       -0.429    14.622    inst_clkdiv/cnt_reg[10]
  -------------------------------------------------------------------
                         required time                         14.622    
                         arrival time                          -8.208    
  -------------------------------------------------------------------
                         slack                                  6.414    

Slack (MET) :             6.414ns  (required time - arrival time)
  Source:                 inst_clkdiv/cnt_reg[11]/C
                            (rising edge-triggered cell FDRE clocked by sys_clk_pin  {rise@0.000ns fall@5.000ns period=10.000ns})
  Destination:            inst_clkdiv/cnt_reg[11]/R
                            (rising edge-triggered cell FDRE clocked by sys_clk_pin  {rise@0.000ns fall@5.000ns period=10.000ns})
  Path Group:             sys_clk_pin
  Path Type:              Setup (Max at Slow Process Corner)
  Requirement:            10.000ns  (sys_clk_pin rise@10.000ns - sys_clk_pin rise@0.000ns)
  Data Path Delay:        3.121ns  (logic 0.704ns (22.555%)  route 2.417ns (77.445%))
  Logic Levels:           2  (LUT4=1 LUT6=1)
  Clock Path Skew:        0.000ns (DCD - SCD + CPR)
    Destination Clock Delay (DCD):    4.786ns = ( 14.786 - 10.000 ) 
    Source Clock Delay      (SCD):    5.086ns
    Clock Pessimism Removal (CPR):    0.300ns
  Clock Uncertainty:      0.035ns  ((TSJ^2 + TIJ^2)^1/2 + DJ) / 2 + PE
    Total System Jitter     (TSJ):    0.071ns
    Total Input Jitter      (TIJ):    0.000ns
    Discrete Jitter          (DJ):    0.000ns
    Phase Error              (PE):    0.000ns

    Location             Delay type                Incr(ns)  Path(ns)    Netlist Resource(s)
  -------------------------------------------------------------------    -------------------
                         (clock sys_clk_pin rise edge)
                                                      0.000     0.000 r  
    W5                                                0.000     0.000 r  clk (IN)
                         net (fo=0)                   0.000     0.000    clk
    W5                   IBUF (Prop_ibuf_I_O)         1.458     1.458 r  clk_IBUF_inst/O
                         net (fo=1, routed)           1.967     3.425    clk_IBUF
    BUFGCTRL_X0Y0        BUFG (Prop_bufg_I_O)         0.096     3.521 r  clk_IBUF_BUFG_inst/O
                         net (fo=35, routed)          1.565     5.086    inst_clkdiv/clk
    SLICE_X36Y45         FDRE                                         r  inst_clkdiv/cnt_reg[11]/C
  -------------------------------------------------------------------    -------------------
    SLICE_X36Y45         FDRE (Prop_fdre_C_Q)         0.456     5.542 f  inst_clkdiv/cnt_reg[11]/Q
                         net (fo=2, routed)           1.097     6.639    inst_clkdiv/cnt_reg[11]
    SLICE_X37Y45         LUT6 (Prop_lut6_I5_O)        0.124     6.763 f  inst_clkdiv/cnt[0]_i_3/O
                         net (fo=1, routed)           0.665     7.429    inst_clkdiv/cnt[0]_i_3_n_0
    SLICE_X37Y45         LUT4 (Prop_lut4_I0_O)        0.124     7.553 r  inst_clkdiv/cnt[0]_i_1/O
                         net (fo=24, routed)          0.655     8.208    inst_clkdiv/clear
    SLICE_X36Y45         FDRE                                         r  inst_clkdiv/cnt_reg[11]/R
  -------------------------------------------------------------------    -------------------

                         (clock sys_clk_pin rise edge)
                                                     10.000    10.000 r  
    W5                                                0.000    10.000 r  clk (IN)
                         net (fo=0)                   0.000    10.000    clk
    W5                   IBUF (Prop_ibuf_I_O)         1.388    11.388 r  clk_IBUF_inst/O
                         net (fo=1, routed)           1.862    13.250    clk_IBUF
    BUFGCTRL_X0Y0        BUFG (Prop_bufg_I_O)         0.091    13.341 r  clk_IBUF_BUFG_inst/O
                         net (fo=35, routed)          1.445    14.786    inst_clkdiv/clk
    SLICE_X36Y45         FDRE                                         r  inst_clkdiv/cnt_reg[11]/C
                         clock pessimism              0.300    15.086    
                         clock uncertainty           -0.035    15.051    
    SLICE_X36Y45         FDRE (Setup_fdre_C_R)       -0.429    14.622    inst_clkdiv/cnt_reg[11]
  -------------------------------------------------------------------
                         required time                         14.622    
                         arrival time                          -8.208    
  -------------------------------------------------------------------
                         slack                                  6.414    

Slack (MET) :             6.414ns  (required time - arrival time)
  Source:                 inst_clkdiv/cnt_reg[11]/C
                            (rising edge-triggered cell FDRE clocked by sys_clk_pin  {rise@0.000ns fall@5.000ns period=10.000ns})
  Destination:            inst_clkdiv/cnt_reg[8]/R
                            (rising edge-triggered cell FDRE clocked by sys_clk_pin  {rise@0.000ns fall@5.000ns period=10.000ns})
  Path Group:             sys_clk_pin
  Path Type:              Setup (Max at Slow Process Corner)
  Requirement:            10.000ns  (sys_clk_pin rise@10.000ns - sys_clk_pin rise@0.000ns)
  Data Path Delay:        3.121ns  (logic 0.704ns (22.555%)  route 2.417ns (77.445%))
  Logic Levels:           2  (LUT4=1 LUT6=1)
  Clock Path Skew:        0.000ns (DCD - SCD + CPR)
    Destination Clock Delay (DCD):    4.786ns = ( 14.786 - 10.000 ) 
    Source Clock Delay      (SCD):    5.086ns
    Clock Pessimism Removal (CPR):    0.300ns
  Clock Uncertainty:      0.035ns  ((TSJ^2 + TIJ^2)^1/2 + DJ) / 2 + PE
    Total System Jitter     (TSJ):    0.071ns
    Total Input Jitter      (TIJ):    0.000ns
    Discrete Jitter          (DJ):    0.000ns
    Phase Error              (PE):    0.000ns

    Location             Delay type                Incr(ns)  Path(ns)    Netlist Resource(s)
  -------------------------------------------------------------------    -------------------
                         (clock sys_clk_pin rise edge)
                                                      0.000     0.000 r  
    W5                                                0.000     0.000 r  clk (IN)
                         net (fo=0)                   0.000     0.000    clk
    W5                   IBUF (Prop_ibuf_I_O)         1.458     1.458 r  clk_IBUF_inst/O
                         net (fo=1, routed)           1.967     3.425    clk_IBUF
    BUFGCTRL_X0Y0        BUFG (Prop_bufg_I_O)         0.096     3.521 r  clk_IBUF_BUFG_inst/O
                         net (fo=35, routed)          1.565     5.086    inst_clkdiv/clk
    SLICE_X36Y45         FDRE                                         r  inst_clkdiv/cnt_reg[11]/C
  -------------------------------------------------------------------    -------------------
    SLICE_X36Y45         FDRE (Prop_fdre_C_Q)         0.456     5.542 f  inst_clkdiv/cnt_reg[11]/Q
                         net (fo=2, routed)           1.097     6.639    inst_clkdiv/cnt_reg[11]
    SLICE_X37Y45         LUT6 (Prop_lut6_I5_O)        0.124     6.763 f  inst_clkdiv/cnt[0]_i_3/O
                         net (fo=1, routed)           0.665     7.429    inst_clkdiv/cnt[0]_i_3_n_0
    SLICE_X37Y45         LUT4 (Prop_lut4_I0_O)        0.124     7.553 r  inst_clkdiv/cnt[0]_i_1/O
                         net (fo=24, routed)          0.655     8.208    inst_clkdiv/clear
    SLICE_X36Y45         FDRE                                         r  inst_clkdiv/cnt_reg[8]/R
  -------------------------------------------------------------------    -------------------

                         (clock sys_clk_pin rise edge)
                                                     10.000    10.000 r  
    W5                                                0.000    10.000 r  clk (IN)
                         net (fo=0)                   0.000    10.000    clk
    W5                   IBUF (Prop_ibuf_I_O)         1.388    11.388 r  clk_IBUF_inst/O
                         net (fo=1, routed)           1.862    13.250    clk_IBUF
    BUFGCTRL_X0Y0        BUFG (Prop_bufg_I_O)         0.091    13.341 r  clk_IBUF_BUFG_inst/O
                         net (fo=35, routed)          1.445    14.786    inst_clkdiv/clk
    SLICE_X36Y45         FDRE                                         r  inst_clkdiv/cnt_reg[8]/C
                         clock pessimism              0.300    15.086    
                         clock uncertainty           -0.035    15.051    
    SLICE_X36Y45         FDRE (Setup_fdre_C_R)       -0.429    14.622    inst_clkdiv/cnt_reg[8]
  -------------------------------------------------------------------
                         required time                         14.622    
                         arrival time                          -8.208    
  -------------------------------------------------------------------
                         slack                                  6.414    

Slack (MET) :             6.414ns  (required time - arrival time)
  Source:                 inst_clkdiv/cnt_reg[11]/C
                            (rising edge-triggered cell FDRE clocked by sys_clk_pin  {rise@0.000ns fall@5.000ns period=10.000ns})
  Destination:            inst_clkdiv/cnt_reg[9]/R
                            (rising edge-triggered cell FDRE clocked by sys_clk_pin  {rise@0.000ns fall@5.000ns period=10.000ns})
  Path Group:             sys_clk_pin
  Path Type:              Setup (Max at Slow Process Corner)
  Requirement:            10.000ns  (sys_clk_pin rise@10.000ns - sys_clk_pin rise@0.000ns)
  Data Path Delay:        3.121ns  (logic 0.704ns (22.555%)  route 2.417ns (77.445%))
  Logic Levels:           2  (LUT4=1 LUT6=1)
  Clock Path Skew:        0.000ns (DCD - SCD + CPR)
    Destination Clock Delay (DCD):    4.786ns = ( 14.786 - 10.000 ) 
    Source Clock Delay      (SCD):    5.086ns
    Clock Pessimism Removal (CPR):    0.300ns
  Clock Uncertainty:      0.035ns  ((TSJ^2 + TIJ^2)^1/2 + DJ) / 2 + PE
    Total System Jitter     (TSJ):    0.071ns
    Total Input Jitter      (TIJ):    0.000ns
    Discrete Jitter          (DJ):    0.000ns
    Phase Error              (PE):    0.000ns

    Location             Delay type                Incr(ns)  Path(ns)    Netlist Resource(s)
  -------------------------------------------------------------------    -------------------
                         (clock sys_clk_pin rise edge)
                                                      0.000     0.000 r  
    W5                                                0.000     0.000 r  clk (IN)
                         net (fo=0)                   0.000     0.000    clk
    W5                   IBUF (Prop_ibuf_I_O)         1.458     1.458 r  clk_IBUF_inst/O
                         net (fo=1, routed)           1.967     3.425    clk_IBUF
    BUFGCTRL_X0Y0        BUFG (Prop_bufg_I_O)         0.096     3.521 r  clk_IBUF_BUFG_inst/O
                         net (fo=35, routed)          1.565     5.086    inst_clkdiv/clk
    SLICE_X36Y45         FDRE                                         r  inst_clkdiv/cnt_reg[11]/C
  -------------------------------------------------------------------    -------------------
    SLICE_X36Y45         FDRE (Prop_fdre_C_Q)         0.456     5.542 f  inst_clkdiv/cnt_reg[11]/Q
                         net (fo=2, routed)           1.097     6.639    inst_clkdiv/cnt_reg[11]
    SLICE_X37Y45         LUT6 (Prop_lut6_I5_O)        0.124     6.763 f  inst_clkdiv/cnt[0]_i_3/O
                         net (fo=1, routed)           0.665     7.429    inst_clkdiv/cnt[0]_i_3_n_0
    SLICE_X37Y45         LUT4 (Prop_lut4_I0_O)        0.124     7.553 r  inst_clkdiv/cnt[0]_i_1/O
                         net (fo=24, routed)          0.655     8.208    inst_clkdiv/clear
    SLICE_X36Y45         FDRE                                         r  inst_clkdiv/cnt_reg[9]/R
  -------------------------------------------------------------------    -------------------

                         (clock sys_clk_pin rise edge)
                                                     10.000    10.000 r  
    W5                                                0.000    10.000 r  clk (IN)
                         net (fo=0)                   0.000    10.000    clk
    W5                   IBUF (Prop_ibuf_I_O)         1.388    11.388 r  clk_IBUF_inst/O
                         net (fo=1, routed)           1.862    13.250    clk_IBUF
    BUFGCTRL_X0Y0        BUFG (Prop_bufg_I_O)         0.091    13.341 r  clk_IBUF_BUFG_inst/O
                         net (fo=35, routed)          1.445    14.786    inst_clkdiv/clk
    SLICE_X36Y45         FDRE                                         r  inst_clkdiv/cnt_reg[9]/C
                         clock pessimism              0.300    15.086    
                         clock uncertainty           -0.035    15.051    
    SLICE_X36Y45         FDRE (Setup_fdre_C_R)       -0.429    14.622    inst_clkdiv/cnt_reg[9]
  -------------------------------------------------------------------
                         required time                         14.622    
                         arrival time                          -8.208    
  -------------------------------------------------------------------
                         slack                                  6.414    

Slack (MET) :             6.462ns  (required time - arrival time)
  Source:                 inst_circuito/inst_datapath/accum_reg[1]/C
                            (rising edge-triggered cell FDRE clocked by sys_clk_pin  {rise@0.000ns fall@5.000ns period=10.000ns})
  Destination:            inst_circuito/inst_datapath/accum_reg[5]/D
                            (rising edge-triggered cell FDRE clocked by sys_clk_pin  {rise@0.000ns fall@5.000ns period=10.000ns})
  Path Group:             sys_clk_pin
  Path Type:              Setup (Max at Slow Process Corner)
  Requirement:            10.000ns  (sys_clk_pin rise@10.000ns - sys_clk_pin rise@0.000ns)
  Data Path Delay:        3.557ns  (logic 1.767ns (49.676%)  route 1.790ns (50.324%))
  Logic Levels:           4  (CARRY4=2 LUT4=2)
  Clock Path Skew:        -0.027ns (DCD - SCD + CPR)
    Destination Clock Delay (DCD):    4.786ns = ( 14.786 - 10.000 ) 
    Source Clock Delay      (SCD):    5.087ns
    Clock Pessimism Removal (CPR):    0.274ns
  Clock Uncertainty:      0.035ns  ((TSJ^2 + TIJ^2)^1/2 + DJ) / 2 + PE
    Total System Jitter     (TSJ):    0.071ns
    Total Input Jitter      (TIJ):    0.000ns
    Discrete Jitter          (DJ):    0.000ns
    Phase Error              (PE):    0.000ns

    Location             Delay type                Incr(ns)  Path(ns)    Netlist Resource(s)
  -------------------------------------------------------------------    -------------------
                         (clock sys_clk_pin rise edge)
                                                      0.000     0.000 r  
    W5                                                0.000     0.000 r  clk (IN)
                         net (fo=0)                   0.000     0.000    clk
    W5                   IBUF (Prop_ibuf_I_O)         1.458     1.458 r  clk_IBUF_inst/O
                         net (fo=1, routed)           1.967     3.425    clk_IBUF
    BUFGCTRL_X0Y0        BUFG (Prop_bufg_I_O)         0.096     3.521 r  clk_IBUF_BUFG_inst/O
                         net (fo=35, routed)          1.566     5.087    inst_circuito/inst_datapath/clk_IBUF_BUFG
    SLICE_X13Y11         FDRE                                         r  inst_circuito/inst_datapath/accum_reg[1]/C
  -------------------------------------------------------------------    -------------------
    SLICE_X13Y11         FDRE (Prop_fdre_C_Q)         0.456     5.543 r  inst_circuito/inst_datapath/accum_reg[1]/Q
                         net (fo=10, routed)          0.991     6.534    inst_circuito/inst_control/accum_reg[7][0]
    SLICE_X13Y12         LUT4 (Prop_lut4_I3_O)        0.124     6.658 r  inst_circuito/inst_control/__5_carry_i_4/O
                         net (fo=1, routed)           0.000     6.658    inst_circuito/inst_datapath/sw_reg_reg[3][0]
    SLICE_X13Y12         CARRY4 (Prop_carry4_S[1]_CO[3])
                                                      0.550     7.208 r  inst_circuito/inst_datapath/__5_carry/CO[3]
                         net (fo=1, routed)           0.000     7.208    inst_circuito/inst_datapath/__5_carry_n_0
    SLICE_X13Y13         CARRY4 (Prop_carry4_CI_O[1])
                                                      0.334     7.542 r  inst_circuito/inst_datapath/__5_carry__0/O[1]
                         net (fo=1, routed)           0.799     8.341    inst_circuito/inst_datapath/addsubsg[5]
    SLICE_X12Y13         LUT4 (Prop_lut4_I3_O)        0.303     8.644 r  inst_circuito/inst_datapath/accum[5]_i_1/O
                         net (fo=1, routed)           0.000     8.644    inst_circuito/inst_datapath/res_alu[5]
    SLICE_X12Y13         FDRE                                         r  inst_circuito/inst_datapath/accum_reg[5]/D
  -------------------------------------------------------------------    -------------------

                         (clock sys_clk_pin rise edge)
                                                     10.000    10.000 r  
    W5                                                0.000    10.000 r  clk (IN)
                         net (fo=0)                   0.000    10.000    clk
    W5                   IBUF (Prop_ibuf_I_O)         1.388    11.388 r  clk_IBUF_inst/O
                         net (fo=1, routed)           1.862    13.250    clk_IBUF
    BUFGCTRL_X0Y0        BUFG (Prop_bufg_I_O)         0.091    13.341 r  clk_IBUF_BUFG_inst/O
                         net (fo=35, routed)          1.445    14.786    inst_circuito/inst_datapath/clk_IBUF_BUFG
    SLICE_X12Y13         FDRE                                         r  inst_circuito/inst_datapath/accum_reg[5]/C
                         clock pessimism              0.274    15.060    
                         clock uncertainty           -0.035    15.025    
    SLICE_X12Y13         FDRE (Setup_fdre_C_D)        0.081    15.106    inst_circuito/inst_datapath/accum_reg[5]
  -------------------------------------------------------------------
                         required time                         15.106    
                         arrival time                          -8.644    
  -------------------------------------------------------------------
                         slack                                  6.462    





Min Delay Paths
--------------------------------------------------------------------------------------
Slack (MET) :             0.219ns  (arrival time - required time)
  Source:                 inst_circuito/inst_datapath/accum_reg[1]/C
                            (rising edge-triggered cell FDRE clocked by sys_clk_pin  {rise@0.000ns fall@5.000ns period=10.000ns})
  Destination:            inst_circuito/inst_datapath/accum_reg[1]/D
                            (rising edge-triggered cell FDRE clocked by sys_clk_pin  {rise@0.000ns fall@5.000ns period=10.000ns})
  Path Group:             sys_clk_pin
  Path Type:              Hold (Min at Fast Process Corner)
  Requirement:            0.000ns  (sys_clk_pin rise@0.000ns - sys_clk_pin rise@0.000ns)
  Data Path Delay:        0.310ns  (logic 0.186ns (59.983%)  route 0.124ns (40.017%))
  Logic Levels:           1  (LUT4=1)
  Clock Path Skew:        0.000ns (DCD - SCD - CPR)
    Destination Clock Delay (DCD):    1.961ns
    Source Clock Delay      (SCD):    1.447ns
    Clock Pessimism Removal (CPR):    0.514ns

    Location             Delay type                Incr(ns)  Path(ns)    Netlist Resource(s)
  -------------------------------------------------------------------    -------------------
                         (clock sys_clk_pin rise edge)
                                                      0.000     0.000 r  
    W5                                                0.000     0.000 r  clk (IN)
                         net (fo=0)                   0.000     0.000    clk
    W5                   IBUF (Prop_ibuf_I_O)         0.226     0.226 r  clk_IBUF_inst/O
                         net (fo=1, routed)           0.631     0.858    clk_IBUF
    BUFGCTRL_X0Y0        BUFG (Prop_bufg_I_O)         0.026     0.884 r  clk_IBUF_BUFG_inst/O
                         net (fo=35, routed)          0.564     1.447    inst_circuito/inst_datapath/clk_IBUF_BUFG
    SLICE_X13Y11         FDRE                                         r  inst_circuito/inst_datapath/accum_reg[1]/C
  -------------------------------------------------------------------    -------------------
    SLICE_X13Y11         FDRE (Prop_fdre_C_Q)         0.141     1.588 r  inst_circuito/inst_datapath/accum_reg[1]/Q
                         net (fo=10, routed)          0.124     1.712    inst_circuito/inst_datapath/Q[0]
    SLICE_X13Y11         LUT4 (Prop_lut4_I0_O)        0.045     1.757 r  inst_circuito/inst_datapath/accum[1]_i_1/O
                         net (fo=1, routed)           0.000     1.757    inst_circuito/inst_datapath/res_alu[1]
    SLICE_X13Y11         FDRE                                         r  inst_circuito/inst_datapath/accum_reg[1]/D
  -------------------------------------------------------------------    -------------------

                         (clock sys_clk_pin rise edge)
                                                      0.000     0.000 r  
    W5                                                0.000     0.000 r  clk (IN)
                         net (fo=0)                   0.000     0.000    clk
    W5                   IBUF (Prop_ibuf_I_O)         0.414     0.414 r  clk_IBUF_inst/O
                         net (fo=1, routed)           0.685     1.099    clk_IBUF
    BUFGCTRL_X0Y0        BUFG (Prop_bufg_I_O)         0.029     1.128 r  clk_IBUF_BUFG_inst/O
                         net (fo=35, routed)          0.834     1.961    inst_circuito/inst_datapath/clk_IBUF_BUFG
    SLICE_X13Y11         FDRE                                         r  inst_circuito/inst_datapath/accum_reg[1]/C
                         clock pessimism             -0.514     1.447    
    SLICE_X13Y11         FDRE (Hold_fdre_C_D)         0.091     1.538    inst_circuito/inst_datapath/accum_reg[1]
  -------------------------------------------------------------------
                         required time                         -1.538    
                         arrival time                           1.757    
  -------------------------------------------------------------------
                         slack                                  0.219    

Slack (MET) :             0.248ns  (arrival time - required time)
  Source:                 inst_circuito/inst_datapath/accum_reg[5]/C
                            (rising edge-triggered cell FDRE clocked by sys_clk_pin  {rise@0.000ns fall@5.000ns period=10.000ns})
  Destination:            inst_circuito/inst_datapath/accum_reg[5]/D
                            (rising edge-triggered cell FDRE clocked by sys_clk_pin  {rise@0.000ns fall@5.000ns period=10.000ns})
  Path Group:             sys_clk_pin
  Path Type:              Hold (Min at Fast Process Corner)
  Requirement:            0.000ns  (sys_clk_pin rise@0.000ns - sys_clk_pin rise@0.000ns)
  Data Path Delay:        0.369ns  (logic 0.209ns (56.573%)  route 0.160ns (43.427%))
  Logic Levels:           1  (LUT4=1)
  Clock Path Skew:        0.000ns (DCD - SCD - CPR)
    Destination Clock Delay (DCD):    1.958ns
    Source Clock Delay      (SCD):    1.445ns
    Clock Pessimism Removal (CPR):    0.513ns

    Location             Delay type                Incr(ns)  Path(ns)    Netlist Resource(s)
  -------------------------------------------------------------------    -------------------
                         (clock sys_clk_pin rise edge)
                                                      0.000     0.000 r  
    W5                                                0.000     0.000 r  clk (IN)
                         net (fo=0)                   0.000     0.000    clk
    W5                   IBUF (Prop_ibuf_I_O)         0.226     0.226 r  clk_IBUF_inst/O
                         net (fo=1, routed)           0.631     0.858    clk_IBUF
    BUFGCTRL_X0Y0        BUFG (Prop_bufg_I_O)         0.026     0.884 r  clk_IBUF_BUFG_inst/O
                         net (fo=35, routed)          0.562     1.445    inst_circuito/inst_datapath/clk_IBUF_BUFG
    SLICE_X12Y13         FDRE                                         r  inst_circuito/inst_datapath/accum_reg[5]/C
  -------------------------------------------------------------------    -------------------
    SLICE_X12Y13         FDRE (Prop_fdre_C_Q)         0.164     1.609 r  inst_circuito/inst_datapath/accum_reg[5]/Q
                         net (fo=10, routed)          0.160     1.770    inst_circuito/inst_datapath/Q[4]
    SLICE_X12Y13         LUT4 (Prop_lut4_I0_O)        0.045     1.815 r  inst_circuito/inst_datapath/accum[5]_i_1/O
                         net (fo=1, routed)           0.000     1.815    inst_circuito/inst_datapath/res_alu[5]
    SLICE_X12Y13         FDRE                                         r  inst_circuito/inst_datapath/accum_reg[5]/D
  -------------------------------------------------------------------    -------------------

                         (clock sys_clk_pin rise edge)
                                                      0.000     0.000 r  
    W5                                                0.000     0.000 r  clk (IN)
                         net (fo=0)                   0.000     0.000    clk
    W5                   IBUF (Prop_ibuf_I_O)         0.414     0.414 r  clk_IBUF_inst/O
                         net (fo=1, routed)           0.685     1.099    clk_IBUF
    BUFGCTRL_X0Y0        BUFG (Prop_bufg_I_O)         0.029     1.128 r  clk_IBUF_BUFG_inst/O
                         net (fo=35, routed)          0.831     1.958    inst_circuito/inst_datapath/clk_IBUF_BUFG
    SLICE_X12Y13         FDRE                                         r  inst_circuito/inst_datapath/accum_reg[5]/C
                         clock pessimism             -0.513     1.445    
    SLICE_X12Y13         FDRE (Hold_fdre_C_D)         0.121     1.566    inst_circuito/inst_datapath/accum_reg[5]
  -------------------------------------------------------------------
                         required time                         -1.566    
                         arrival time                           1.815    
  -------------------------------------------------------------------
                         slack                                  0.248    

Slack (MET) :             0.263ns  (arrival time - required time)
  Source:                 inst_circuito/inst_datapath/accum_reg[3]/C
                            (rising edge-triggered cell FDRE clocked by sys_clk_pin  {rise@0.000ns fall@5.000ns period=10.000ns})
  Destination:            inst_circuito/inst_datapath/accum_reg[3]/D
                            (rising edge-triggered cell FDRE clocked by sys_clk_pin  {rise@0.000ns fall@5.000ns period=10.000ns})
  Path Group:             sys_clk_pin
  Path Type:              Hold (Min at Fast Process Corner)
  Requirement:            0.000ns  (sys_clk_pin rise@0.000ns - sys_clk_pin rise@0.000ns)
  Data Path Delay:        0.384ns  (logic 0.209ns (54.481%)  route 0.175ns (45.519%))
  Logic Levels:           1  (LUT4=1)
  Clock Path Skew:        0.000ns (DCD - SCD - CPR)
    Destination Clock Delay (DCD):    1.961ns
    Source Clock Delay      (SCD):    1.447ns
    Clock Pessimism Removal (CPR):    0.514ns

    Location             Delay type                Incr(ns)  Path(ns)    Netlist Resource(s)
  -------------------------------------------------------------------    -------------------
                         (clock sys_clk_pin rise edge)
                                                      0.000     0.000 r  
    W5                                                0.000     0.000 r  clk (IN)
                         net (fo=0)                   0.000     0.000    clk
    W5                   IBUF (Prop_ibuf_I_O)         0.226     0.226 r  clk_IBUF_inst/O
                         net (fo=1, routed)           0.631     0.858    clk_IBUF
    BUFGCTRL_X0Y0        BUFG (Prop_bufg_I_O)         0.026     0.884 r  clk_IBUF_BUFG_inst/O
                         net (fo=35, routed)          0.564     1.447    inst_circuito/inst_datapath/clk_IBUF_BUFG
    SLICE_X12Y11         FDRE                                         r  inst_circuito/inst_datapath/accum_reg[3]/C
  -------------------------------------------------------------------    -------------------
    SLICE_X12Y11         FDRE (Prop_fdre_C_Q)         0.164     1.611 r  inst_circuito/inst_datapath/accum_reg[3]/Q
                         net (fo=10, routed)          0.175     1.786    inst_circuito/inst_datapath/Q[2]
    SLICE_X12Y11         LUT4 (Prop_lut4_I0_O)        0.045     1.831 r  inst_circuito/inst_datapath/accum[3]_i_1/O
                         net (fo=1, routed)           0.000     1.831    inst_circuito/inst_datapath/res_alu[3]
    SLICE_X12Y11         FDRE                                         r  inst_circuito/inst_datapath/accum_reg[3]/D
  -------------------------------------------------------------------    -------------------

                         (clock sys_clk_pin rise edge)
                                                      0.000     0.000 r  
    W5                                                0.000     0.000 r  clk (IN)
                         net (fo=0)                   0.000     0.000    clk
    W5                   IBUF (Prop_ibuf_I_O)         0.414     0.414 r  clk_IBUF_inst/O
                         net (fo=1, routed)           0.685     1.099    clk_IBUF
    BUFGCTRL_X0Y0        BUFG (Prop_bufg_I_O)         0.029     1.128 r  clk_IBUF_BUFG_inst/O
                         net (fo=35, routed)          0.834     1.961    inst_circuito/inst_datapath/clk_IBUF_BUFG
    SLICE_X12Y11         FDRE                                         r  inst_circuito/inst_datapath/accum_reg[3]/C
                         clock pessimism             -0.514     1.447    
    SLICE_X12Y11         FDRE (Hold_fdre_C_D)         0.121     1.568    inst_circuito/inst_datapath/accum_reg[3]
  -------------------------------------------------------------------
                         required time                         -1.568    
                         arrival time                           1.831    
  -------------------------------------------------------------------
                         slack                                  0.263    

Slack (MET) :             0.264ns  (arrival time - required time)
  Source:                 inst_circuito/inst_datapath/accum_reg[7]/C
                            (rising edge-triggered cell FDRE clocked by sys_clk_pin  {rise@0.000ns fall@5.000ns period=10.000ns})
  Destination:            inst_circuito/inst_datapath/accum_reg[7]/D
                            (rising edge-triggered cell FDRE clocked by sys_clk_pin  {rise@0.000ns fall@5.000ns period=10.000ns})
  Path Group:             sys_clk_pin
  Path Type:              Hold (Min at Fast Process Corner)
  Requirement:            0.000ns  (sys_clk_pin rise@0.000ns - sys_clk_pin rise@0.000ns)
  Data Path Delay:        0.384ns  (logic 0.209ns (54.393%)  route 0.175ns (45.607%))
  Logic Levels:           1  (LUT4=1)
  Clock Path Skew:        0.000ns (DCD - SCD - CPR)
    Destination Clock Delay (DCD):    1.959ns
    Source Clock Delay      (SCD):    1.446ns
    Clock Pessimism Removal (CPR):    0.513ns

    Location             Delay type                Incr(ns)  Path(ns)    Netlist Resource(s)
  -------------------------------------------------------------------    -------------------
                         (clock sys_clk_pin rise edge)
                                                      0.000     0.000 r  
    W5                                                0.000     0.000 r  clk (IN)
                         net (fo=0)                   0.000     0.000    clk
    W5                   IBUF (Prop_ibuf_I_O)         0.226     0.226 r  clk_IBUF_inst/O
                         net (fo=1, routed)           0.631     0.858    clk_IBUF
    BUFGCTRL_X0Y0        BUFG (Prop_bufg_I_O)         0.026     0.884 r  clk_IBUF_BUFG_inst/O
                         net (fo=35, routed)          0.563     1.446    inst_circuito/inst_datapath/clk_IBUF_BUFG
    SLICE_X12Y12         FDRE                                         r  inst_circuito/inst_datapath/accum_reg[7]/C
  -------------------------------------------------------------------    -------------------
    SLICE_X12Y12         FDRE (Prop_fdre_C_Q)         0.164     1.610 r  inst_circuito/inst_datapath/accum_reg[7]/Q
                         net (fo=9, routed)           0.175     1.785    inst_circuito/inst_datapath/Q[6]
    SLICE_X12Y12         LUT4 (Prop_lut4_I0_O)        0.045     1.830 r  inst_circuito/inst_datapath/accum[7]_i_2/O
                         net (fo=1, routed)           0.000     1.830    inst_circuito/inst_datapath/res_alu[7]
    SLICE_X12Y12         FDRE                                         r  inst_circuito/inst_datapath/accum_reg[7]/D
  -------------------------------------------------------------------    -------------------

                         (clock sys_clk_pin rise edge)
                                                      0.000     0.000 r  
    W5                                                0.000     0.000 r  clk (IN)
                         net (fo=0)                   0.000     0.000    clk
    W5                   IBUF (Prop_ibuf_I_O)         0.414     0.414 r  clk_IBUF_inst/O
                         net (fo=1, routed)           0.685     1.099    clk_IBUF
    BUFGCTRL_X0Y0        BUFG (Prop_bufg_I_O)         0.029     1.128 r  clk_IBUF_BUFG_inst/O
                         net (fo=35, routed)          0.832     1.959    inst_circuito/inst_datapath/clk_IBUF_BUFG
    SLICE_X12Y12         FDRE                                         r  inst_circuito/inst_datapath/accum_reg[7]/C
                         clock pessimism             -0.513     1.446    
    SLICE_X12Y12         FDRE (Hold_fdre_C_D)         0.120     1.566    inst_circuito/inst_datapath/accum_reg[7]
  -------------------------------------------------------------------
                         required time                         -1.566    
                         arrival time                           1.830    
  -------------------------------------------------------------------
                         slack                                  0.264    

Slack (MET) :             0.275ns  (arrival time - required time)
  Source:                 inst_circuito/inst_datapath/accum_reg[2]/C
                            (rising edge-triggered cell FDRE clocked by sys_clk_pin  {rise@0.000ns fall@5.000ns period=10.000ns})
  Destination:            inst_circuito/inst_datapath/accum_reg[2]/D
                            (rising edge-triggered cell FDRE clocked by sys_clk_pin  {rise@0.000ns fall@5.000ns period=10.000ns})
  Path Group:             sys_clk_pin
  Path Type:              Hold (Min at Fast Process Corner)
  Requirement:            0.000ns  (sys_clk_pin rise@0.000ns - sys_clk_pin rise@0.000ns)
  Data Path Delay:        0.395ns  (logic 0.209ns (52.857%)  route 0.186ns (47.143%))
  Logic Levels:           1  (LUT4=1)
  Clock Path Skew:        0.000ns (DCD - SCD - CPR)
    Destination Clock Delay (DCD):    1.961ns
    Source Clock Delay      (SCD):    1.447ns
    Clock Pessimism Removal (CPR):    0.514ns

    Location             Delay type                Incr(ns)  Path(ns)    Netlist Resource(s)
  -------------------------------------------------------------------    -------------------
                         (clock sys_clk_pin rise edge)
                                                      0.000     0.000 r  
    W5                                                0.000     0.000 r  clk (IN)
                         net (fo=0)                   0.000     0.000    clk
    W5                   IBUF (Prop_ibuf_I_O)         0.226     0.226 r  clk_IBUF_inst/O
                         net (fo=1, routed)           0.631     0.858    clk_IBUF
    BUFGCTRL_X0Y0        BUFG (Prop_bufg_I_O)         0.026     0.884 r  clk_IBUF_BUFG_inst/O
                         net (fo=35, routed)          0.564     1.447    inst_circuito/inst_datapath/clk_IBUF_BUFG
    SLICE_X12Y11         FDRE                                         r  inst_circuito/inst_datapath/accum_reg[2]/C
  -------------------------------------------------------------------    -------------------
    SLICE_X12Y11         FDRE (Prop_fdre_C_Q)         0.164     1.611 r  inst_circuito/inst_datapath/accum_reg[2]/Q
                         net (fo=10, routed)          0.186     1.798    inst_circuito/inst_datapath/Q[1]
    SLICE_X12Y11         LUT4 (Prop_lut4_I0_O)        0.045     1.843 r  inst_circuito/inst_datapath/accum[2]_i_1/O
                         net (fo=1, routed)           0.000     1.843    inst_circuito/inst_datapath/res_alu[2]
    SLICE_X12Y11         FDRE                                         r  inst_circuito/inst_datapath/accum_reg[2]/D
  -------------------------------------------------------------------    -------------------

                         (clock sys_clk_pin rise edge)
                                                      0.000     0.000 r  
    W5                                                0.000     0.000 r  clk (IN)
                         net (fo=0)                   0.000     0.000    clk
    W5                   IBUF (Prop_ibuf_I_O)         0.414     0.414 r  clk_IBUF_inst/O
                         net (fo=1, routed)           0.685     1.099    clk_IBUF
    BUFGCTRL_X0Y0        BUFG (Prop_bufg_I_O)         0.029     1.128 r  clk_IBUF_BUFG_inst/O
                         net (fo=35, routed)          0.834     1.961    inst_circuito/inst_datapath/clk_IBUF_BUFG
    SLICE_X12Y11         FDRE                                         r  inst_circuito/inst_datapath/accum_reg[2]/C
                         clock pessimism             -0.514     1.447    
    SLICE_X12Y11         FDRE (Hold_fdre_C_D)         0.120     1.567    inst_circuito/inst_datapath/accum_reg[2]
  -------------------------------------------------------------------
                         required time                         -1.567    
                         arrival time                           1.843    
  -------------------------------------------------------------------
                         slack                                  0.275    

Slack (MET) :             0.280ns  (arrival time - required time)
  Source:                 inst_clkdiv/cnt_reg[10]/C
                            (rising edge-triggered cell FDRE clocked by sys_clk_pin  {rise@0.000ns fall@5.000ns period=10.000ns})
  Destination:            inst_clkdiv/cnt_reg[10]/D
                            (rising edge-triggered cell FDRE clocked by sys_clk_pin  {rise@0.000ns fall@5.000ns period=10.000ns})
  Path Group:             sys_clk_pin
  Path Type:              Hold (Min at Fast Process Corner)
  Requirement:            0.000ns  (sys_clk_pin rise@0.000ns - sys_clk_pin rise@0.000ns)
  Data Path Delay:        0.385ns  (logic 0.252ns (65.529%)  route 0.133ns (34.471%))
  Logic Levels:           1  (CARRY4=1)
  Clock Path Skew:        0.000ns (DCD - SCD - CPR)
    Destination Clock Delay (DCD):    1.959ns
    Source Clock Delay      (SCD):    1.446ns
    Clock Pessimism Removal (CPR):    0.513ns

    Location             Delay type                Incr(ns)  Path(ns)    Netlist Resource(s)
  -------------------------------------------------------------------    -------------------
                         (clock sys_clk_pin rise edge)
                                                      0.000     0.000 r  
    W5                                                0.000     0.000 r  clk (IN)
                         net (fo=0)                   0.000     0.000    clk
    W5                   IBUF (Prop_ibuf_I_O)         0.226     0.226 r  clk_IBUF_inst/O
                         net (fo=1, routed)           0.631     0.858    clk_IBUF
    BUFGCTRL_X0Y0        BUFG (Prop_bufg_I_O)         0.026     0.884 r  clk_IBUF_BUFG_inst/O
                         net (fo=35, routed)          0.563     1.446    inst_clkdiv/clk
    SLICE_X36Y45         FDRE                                         r  inst_clkdiv/cnt_reg[10]/C
  -------------------------------------------------------------------    -------------------
    SLICE_X36Y45         FDRE (Prop_fdre_C_Q)         0.141     1.587 r  inst_clkdiv/cnt_reg[10]/Q
                         net (fo=2, routed)           0.133     1.720    inst_clkdiv/cnt_reg[10]
    SLICE_X36Y45         CARRY4 (Prop_carry4_S[2]_O[2])
                                                      0.111     1.831 r  inst_clkdiv/cnt_reg[8]_i_1/O[2]
                         net (fo=1, routed)           0.000     1.831    inst_clkdiv/cnt_reg[8]_i_1_n_5
    SLICE_X36Y45         FDRE                                         r  inst_clkdiv/cnt_reg[10]/D
  -------------------------------------------------------------------    -------------------

                         (clock sys_clk_pin rise edge)
                                                      0.000     0.000 r  
    W5                                                0.000     0.000 r  clk (IN)
                         net (fo=0)                   0.000     0.000    clk
    W5                   IBUF (Prop_ibuf_I_O)         0.414     0.414 r  clk_IBUF_inst/O
                         net (fo=1, routed)           0.685     1.099    clk_IBUF
    BUFGCTRL_X0Y0        BUFG (Prop_bufg_I_O)         0.029     1.128 r  clk_IBUF_BUFG_inst/O
                         net (fo=35, routed)          0.832     1.959    inst_clkdiv/clk
    SLICE_X36Y45         FDRE                                         r  inst_clkdiv/cnt_reg[10]/C
                         clock pessimism             -0.513     1.446    
    SLICE_X36Y45         FDRE (Hold_fdre_C_D)         0.105     1.551    inst_clkdiv/cnt_reg[10]
  -------------------------------------------------------------------
                         required time                         -1.551    
                         arrival time                           1.831    
  -------------------------------------------------------------------
                         slack                                  0.280    

Slack (MET) :             0.280ns  (arrival time - required time)
  Source:                 inst_clkdiv/cnt_reg[2]/C
                            (rising edge-triggered cell FDRE clocked by sys_clk_pin  {rise@0.000ns fall@5.000ns period=10.000ns})
  Destination:            inst_clkdiv/cnt_reg[2]/D
                            (rising edge-triggered cell FDRE clocked by sys_clk_pin  {rise@0.000ns fall@5.000ns period=10.000ns})
  Path Group:             sys_clk_pin
  Path Type:              Hold (Min at Fast Process Corner)
  Requirement:            0.000ns  (sys_clk_pin rise@0.000ns - sys_clk_pin rise@0.000ns)
  Data Path Delay:        0.385ns  (logic 0.252ns (65.529%)  route 0.133ns (34.471%))
  Logic Levels:           1  (CARRY4=1)
  Clock Path Skew:        0.000ns (DCD - SCD - CPR)
    Destination Clock Delay (DCD):    1.959ns
    Source Clock Delay      (SCD):    1.446ns
    Clock Pessimism Removal (CPR):    0.513ns

    Location             Delay type                Incr(ns)  Path(ns)    Netlist Resource(s)
  -------------------------------------------------------------------    -------------------
                         (clock sys_clk_pin rise edge)
                                                      0.000     0.000 r  
    W5                                                0.000     0.000 r  clk (IN)
                         net (fo=0)                   0.000     0.000    clk
    W5                   IBUF (Prop_ibuf_I_O)         0.226     0.226 r  clk_IBUF_inst/O
                         net (fo=1, routed)           0.631     0.858    clk_IBUF
    BUFGCTRL_X0Y0        BUFG (Prop_bufg_I_O)         0.026     0.884 r  clk_IBUF_BUFG_inst/O
                         net (fo=35, routed)          0.563     1.446    inst_clkdiv/clk
    SLICE_X36Y43         FDRE                                         r  inst_clkdiv/cnt_reg[2]/C
  -------------------------------------------------------------------    -------------------
    SLICE_X36Y43         FDRE (Prop_fdre_C_Q)         0.141     1.587 r  inst_clkdiv/cnt_reg[2]/Q
                         net (fo=2, routed)           0.133     1.720    inst_clkdiv/cnt_reg[2]
    SLICE_X36Y43         CARRY4 (Prop_carry4_S[2]_O[2])
                                                      0.111     1.831 r  inst_clkdiv/cnt_reg[0]_i_2/O[2]
                         net (fo=1, routed)           0.000     1.831    inst_clkdiv/cnt_reg[0]_i_2_n_5
    SLICE_X36Y43         FDRE                                         r  inst_clkdiv/cnt_reg[2]/D
  -------------------------------------------------------------------    -------------------

                         (clock sys_clk_pin rise edge)
                                                      0.000     0.000 r  
    W5                                                0.000     0.000 r  clk (IN)
                         net (fo=0)                   0.000     0.000    clk
    W5                   IBUF (Prop_ibuf_I_O)         0.414     0.414 r  clk_IBUF_inst/O
                         net (fo=1, routed)           0.685     1.099    clk_IBUF
    BUFGCTRL_X0Y0        BUFG (Prop_bufg_I_O)         0.029     1.128 r  clk_IBUF_BUFG_inst/O
                         net (fo=35, routed)          0.832     1.959    inst_clkdiv/clk
    SLICE_X36Y43         FDRE                                         r  inst_clkdiv/cnt_reg[2]/C
                         clock pessimism             -0.513     1.446    
    SLICE_X36Y43         FDRE (Hold_fdre_C_D)         0.105     1.551    inst_clkdiv/cnt_reg[2]
  -------------------------------------------------------------------
                         required time                         -1.551    
                         arrival time                           1.831    
  -------------------------------------------------------------------
                         slack                                  0.280    

Slack (MET) :             0.280ns  (arrival time - required time)
  Source:                 inst_clkdiv/cnt_reg[18]/C
                            (rising edge-triggered cell FDRE clocked by sys_clk_pin  {rise@0.000ns fall@5.000ns period=10.000ns})
  Destination:            inst_clkdiv/cnt_reg[18]/D
                            (rising edge-triggered cell FDRE clocked by sys_clk_pin  {rise@0.000ns fall@5.000ns period=10.000ns})
  Path Group:             sys_clk_pin
  Path Type:              Hold (Min at Fast Process Corner)
  Requirement:            0.000ns  (sys_clk_pin rise@0.000ns - sys_clk_pin rise@0.000ns)
  Data Path Delay:        0.385ns  (logic 0.252ns (65.465%)  route 0.133ns (34.535%))
  Logic Levels:           1  (CARRY4=1)
  Clock Path Skew:        0.000ns (DCD - SCD - CPR)
    Destination Clock Delay (DCD):    1.960ns
    Source Clock Delay      (SCD):    1.447ns
    Clock Pessimism Removal (CPR):    0.513ns

    Location             Delay type                Incr(ns)  Path(ns)    Netlist Resource(s)
  -------------------------------------------------------------------    -------------------
                         (clock sys_clk_pin rise edge)
                                                      0.000     0.000 r  
    W5                                                0.000     0.000 r  clk (IN)
                         net (fo=0)                   0.000     0.000    clk
    W5                   IBUF (Prop_ibuf_I_O)         0.226     0.226 r  clk_IBUF_inst/O
                         net (fo=1, routed)           0.631     0.858    clk_IBUF
    BUFGCTRL_X0Y0        BUFG (Prop_bufg_I_O)         0.026     0.884 r  clk_IBUF_BUFG_inst/O
                         net (fo=35, routed)          0.564     1.447    inst_clkdiv/clk
    SLICE_X36Y47         FDRE                                         r  inst_clkdiv/cnt_reg[18]/C
  -------------------------------------------------------------------    -------------------
    SLICE_X36Y47         FDRE (Prop_fdre_C_Q)         0.141     1.588 r  inst_clkdiv/cnt_reg[18]/Q
                         net (fo=2, routed)           0.133     1.721    inst_clkdiv/cnt_reg[18]
    SLICE_X36Y47         CARRY4 (Prop_carry4_S[2]_O[2])
                                                      0.111     1.832 r  inst_clkdiv/cnt_reg[16]_i_1/O[2]
                         net (fo=1, routed)           0.000     1.832    inst_clkdiv/cnt_reg[16]_i_1_n_5
    SLICE_X36Y47         FDRE                                         r  inst_clkdiv/cnt_reg[18]/D
  -------------------------------------------------------------------    -------------------

                         (clock sys_clk_pin rise edge)
                                                      0.000     0.000 r  
    W5                                                0.000     0.000 r  clk (IN)
                         net (fo=0)                   0.000     0.000    clk
    W5                   IBUF (Prop_ibuf_I_O)         0.414     0.414 r  clk_IBUF_inst/O
                         net (fo=1, routed)           0.685     1.099    clk_IBUF
    BUFGCTRL_X0Y0        BUFG (Prop_bufg_I_O)         0.029     1.128 r  clk_IBUF_BUFG_inst/O
                         net (fo=35, routed)          0.833     1.960    inst_clkdiv/clk
    SLICE_X36Y47         FDRE                                         r  inst_clkdiv/cnt_reg[18]/C
                         clock pessimism             -0.513     1.447    
    SLICE_X36Y47         FDRE (Hold_fdre_C_D)         0.105     1.552    inst_clkdiv/cnt_reg[18]
  -------------------------------------------------------------------
                         required time                         -1.552    
                         arrival time                           1.832    
  -------------------------------------------------------------------
                         slack                                  0.280    

Slack (MET) :             0.281ns  (arrival time - required time)
  Source:                 inst_clkdiv/cnt_reg[14]/C
                            (rising edge-triggered cell FDRE clocked by sys_clk_pin  {rise@0.000ns fall@5.000ns period=10.000ns})
  Destination:            inst_clkdiv/cnt_reg[14]/D
                            (rising edge-triggered cell FDRE clocked by sys_clk_pin  {rise@0.000ns fall@5.000ns period=10.000ns})
  Path Group:             sys_clk_pin
  Path Type:              Hold (Min at Fast Process Corner)
  Requirement:            0.000ns  (sys_clk_pin rise@0.000ns - sys_clk_pin rise@0.000ns)
  Data Path Delay:        0.386ns  (logic 0.252ns (65.354%)  route 0.134ns (34.646%))
  Logic Levels:           1  (CARRY4=1)
  Clock Path Skew:        0.000ns (DCD - SCD - CPR)
    Destination Clock Delay (DCD):    1.959ns
    Source Clock Delay      (SCD):    1.446ns
    Clock Pessimism Removal (CPR):    0.513ns

    Location             Delay type                Incr(ns)  Path(ns)    Netlist Resource(s)
  -------------------------------------------------------------------    -------------------
                         (clock sys_clk_pin rise edge)
                                                      0.000     0.000 r  
    W5                                                0.000     0.000 r  clk (IN)
                         net (fo=0)                   0.000     0.000    clk
    W5                   IBUF (Prop_ibuf_I_O)         0.226     0.226 r  clk_IBUF_inst/O
                         net (fo=1, routed)           0.631     0.858    clk_IBUF
    BUFGCTRL_X0Y0        BUFG (Prop_bufg_I_O)         0.026     0.884 r  clk_IBUF_BUFG_inst/O
                         net (fo=35, routed)          0.563     1.446    inst_clkdiv/clk
    SLICE_X36Y46         FDRE                                         r  inst_clkdiv/cnt_reg[14]/C
  -------------------------------------------------------------------    -------------------
    SLICE_X36Y46         FDRE (Prop_fdre_C_Q)         0.141     1.587 r  inst_clkdiv/cnt_reg[14]/Q
                         net (fo=2, routed)           0.134     1.721    inst_clkdiv/cnt_reg[14]
    SLICE_X36Y46         CARRY4 (Prop_carry4_S[2]_O[2])
                                                      0.111     1.832 r  inst_clkdiv/cnt_reg[12]_i_1/O[2]
                         net (fo=1, routed)           0.000     1.832    inst_clkdiv/cnt_reg[12]_i_1_n_5
    SLICE_X36Y46         FDRE                                         r  inst_clkdiv/cnt_reg[14]/D
  -------------------------------------------------------------------    -------------------

                         (clock sys_clk_pin rise edge)
                                                      0.000     0.000 r  
    W5                                                0.000     0.000 r  clk (IN)
                         net (fo=0)                   0.000     0.000    clk
    W5                   IBUF (Prop_ibuf_I_O)         0.414     0.414 r  clk_IBUF_inst/O
                         net (fo=1, routed)           0.685     1.099    clk_IBUF
    BUFGCTRL_X0Y0        BUFG (Prop_bufg_I_O)         0.029     1.128 r  clk_IBUF_BUFG_inst/O
                         net (fo=35, routed)          0.832     1.959    inst_clkdiv/clk
    SLICE_X36Y46         FDRE                                         r  inst_clkdiv/cnt_reg[14]/C
                         clock pessimism             -0.513     1.446    
    SLICE_X36Y46         FDRE (Hold_fdre_C_D)         0.105     1.551    inst_clkdiv/cnt_reg[14]
  -------------------------------------------------------------------
                         required time                         -1.551    
                         arrival time                           1.832    
  -------------------------------------------------------------------
                         slack                                  0.281    

Slack (MET) :             0.281ns  (arrival time - required time)
  Source:                 inst_clkdiv/cnt_reg[6]/C
                            (rising edge-triggered cell FDRE clocked by sys_clk_pin  {rise@0.000ns fall@5.000ns period=10.000ns})
  Destination:            inst_clkdiv/cnt_reg[6]/D
                            (rising edge-triggered cell FDRE clocked by sys_clk_pin  {rise@0.000ns fall@5.000ns period=10.000ns})
  Path Group:             sys_clk_pin
  Path Type:              Hold (Min at Fast Process Corner)
  Requirement:            0.000ns  (sys_clk_pin rise@0.000ns - sys_clk_pin rise@0.000ns)
  Data Path Delay:        0.386ns  (logic 0.252ns (65.354%)  route 0.134ns (34.646%))
  Logic Levels:           1  (CARRY4=1)
  Clock Path Skew:        0.000ns (DCD - SCD - CPR)
    Destination Clock Delay (DCD):    1.959ns
    Source Clock Delay      (SCD):    1.446ns
    Clock Pessimism Removal (CPR):    0.513ns

    Location             Delay type                Incr(ns)  Path(ns)    Netlist Resource(s)
  -------------------------------------------------------------------    -------------------
                         (clock sys_clk_pin rise edge)
                                                      0.000     0.000 r  
    W5                                                0.000     0.000 r  clk (IN)
                         net (fo=0)                   0.000     0.000    clk
    W5                   IBUF (Prop_ibuf_I_O)         0.226     0.226 r  clk_IBUF_inst/O
                         net (fo=1, routed)           0.631     0.858    clk_IBUF
    BUFGCTRL_X0Y0        BUFG (Prop_bufg_I_O)         0.026     0.884 r  clk_IBUF_BUFG_inst/O
                         net (fo=35, routed)          0.563     1.446    inst_clkdiv/clk
    SLICE_X36Y44         FDRE                                         r  inst_clkdiv/cnt_reg[6]/C
  -------------------------------------------------------------------    -------------------
    SLICE_X36Y44         FDRE (Prop_fdre_C_Q)         0.141     1.587 r  inst_clkdiv/cnt_reg[6]/Q
                         net (fo=2, routed)           0.134     1.721    inst_clkdiv/cnt_reg[6]
    SLICE_X36Y44         CARRY4 (Prop_carry4_S[2]_O[2])
                                                      0.111     1.832 r  inst_clkdiv/cnt_reg[4]_i_1/O[2]
                         net (fo=1, routed)           0.000     1.832    inst_clkdiv/cnt_reg[4]_i_1_n_5
    SLICE_X36Y44         FDRE                                         r  inst_clkdiv/cnt_reg[6]/D
  -------------------------------------------------------------------    -------------------

                         (clock sys_clk_pin rise edge)
                                                      0.000     0.000 r  
    W5                                                0.000     0.000 r  clk (IN)
                         net (fo=0)                   0.000     0.000    clk
    W5                   IBUF (Prop_ibuf_I_O)         0.414     0.414 r  clk_IBUF_inst/O
                         net (fo=1, routed)           0.685     1.099    clk_IBUF
    BUFGCTRL_X0Y0        BUFG (Prop_bufg_I_O)         0.029     1.128 r  clk_IBUF_BUFG_inst/O
                         net (fo=35, routed)          0.832     1.959    inst_clkdiv/clk
    SLICE_X36Y44         FDRE                                         r  inst_clkdiv/cnt_reg[6]/C
                         clock pessimism             -0.513     1.446    
    SLICE_X36Y44         FDRE (Hold_fdre_C_D)         0.105     1.551    inst_clkdiv/cnt_reg[6]
  -------------------------------------------------------------------
                         required time                         -1.551    
                         arrival time                           1.832    
  -------------------------------------------------------------------
                         slack                                  0.281    





Pulse Width Checks
--------------------------------------------------------------------------------------
Clock Name:         sys_clk_pin
Waveform(ns):       { 0.000 5.000 }
Period(ns):         10.000
Sources:            { clk }

Check Type        Corner  Lib Pin  Reference Pin  Required(ns)  Actual(ns)  Slack(ns)  Location       Pin
Min Period        n/a     BUFG/I   n/a            2.155         10.000      7.845      BUFGCTRL_X0Y0  clk_IBUF_BUFG_inst/I
Min Period        n/a     FDRE/C   n/a            1.000         10.000      9.000      SLICE_X13Y14   inst_circuito/inst_control/currstate_reg[0]/C
Min Period        n/a     FDRE/C   n/a            1.000         10.000      9.000      SLICE_X13Y14   inst_circuito/inst_control/currstate_reg[1]/C
Min Period        n/a     FDRE/C   n/a            1.000         10.000      9.000      SLICE_X13Y14   inst_circuito/inst_control/currstate_reg[2]/C
Min Period        n/a     FDRE/C   n/a            1.000         10.000      9.000      SLICE_X13Y11   inst_circuito/inst_datapath/accum_reg[0]/C
Min Period        n/a     FDRE/C   n/a            1.000         10.000      9.000      SLICE_X13Y11   inst_circuito/inst_datapath/accum_reg[1]/C
Min Period        n/a     FDRE/C   n/a            1.000         10.000      9.000      SLICE_X12Y11   inst_circuito/inst_datapath/accum_reg[2]/C
Min Period        n/a     FDRE/C   n/a            1.000         10.000      9.000      SLICE_X12Y11   inst_circuito/inst_datapath/accum_reg[3]/C
Min Period        n/a     FDRE/C   n/a            1.000         10.000      9.000      SLICE_X12Y13   inst_circuito/inst_datapath/accum_reg[4]/C
Min Period        n/a     FDRE/C   n/a            1.000         10.000      9.000      SLICE_X12Y13   inst_circuito/inst_datapath/accum_reg[5]/C
Low Pulse Width   Slow    FDRE/C   n/a            0.500         5.000       4.500      SLICE_X13Y14   inst_circuito/inst_control/currstate_reg[0]/C
Low Pulse Width   Slow    FDRE/C   n/a            0.500         5.000       4.500      SLICE_X13Y14   inst_circuito/inst_control/currstate_reg[1]/C
Low Pulse Width   Slow    FDRE/C   n/a            0.500         5.000       4.500      SLICE_X13Y14   inst_circuito/inst_control/currstate_reg[2]/C
Low Pulse Width   Slow    FDRE/C   n/a            0.500         5.000       4.500      SLICE_X13Y11   inst_circuito/inst_datapath/accum_reg[0]/C
Low Pulse Width   Slow    FDRE/C   n/a            0.500         5.000       4.500      SLICE_X13Y11   inst_circuito/inst_datapath/accum_reg[1]/C
Low Pulse Width   Slow    FDRE/C   n/a            0.500         5.000       4.500      SLICE_X12Y11   inst_circuito/inst_datapath/accum_reg[2]/C
Low Pulse Width   Slow    FDRE/C   n/a            0.500         5.000       4.500      SLICE_X12Y11   inst_circuito/inst_datapath/accum_reg[3]/C
Low Pulse Width   Slow    FDRE/C   n/a            0.500         5.000       4.500      SLICE_X12Y13   inst_circuito/inst_datapath/accum_reg[4]/C
Low Pulse Width   Slow    FDRE/C   n/a            0.500         5.000       4.500      SLICE_X12Y13   inst_circuito/inst_datapath/accum_reg[5]/C
Low Pulse Width   Slow    FDRE/C   n/a            0.500         5.000       4.500      SLICE_X12Y13   inst_circuito/inst_datapath/accum_reg[6]/C
High Pulse Width  Fast    FDRE/C   n/a            0.500         5.000       4.500      SLICE_X13Y14   inst_circuito/inst_control/currstate_reg[0]/C
High Pulse Width  Fast    FDRE/C   n/a            0.500         5.000       4.500      SLICE_X13Y14   inst_circuito/inst_control/currstate_reg[1]/C
High Pulse Width  Fast    FDRE/C   n/a            0.500         5.000       4.500      SLICE_X13Y14   inst_circuito/inst_control/currstate_reg[2]/C
High Pulse Width  Fast    FDRE/C   n/a            0.500         5.000       4.500      SLICE_X13Y11   inst_circuito/inst_datapath/accum_reg[0]/C
High Pulse Width  Fast    FDRE/C   n/a            0.500         5.000       4.500      SLICE_X13Y11   inst_circuito/inst_datapath/accum_reg[1]/C
High Pulse Width  Fast    FDRE/C   n/a            0.500         5.000       4.500      SLICE_X12Y11   inst_circuito/inst_datapath/accum_reg[2]/C
High Pulse Width  Fast    FDRE/C   n/a            0.500         5.000       4.500      SLICE_X12Y11   inst_circuito/inst_datapath/accum_reg[3]/C
High Pulse Width  Fast    FDRE/C   n/a            0.500         5.000       4.500      SLICE_X12Y13   inst_circuito/inst_datapath/accum_reg[4]/C
High Pulse Width  Fast    FDRE/C   n/a            0.500         5.000       4.500      SLICE_X12Y13   inst_circuito/inst_datapath/accum_reg[5]/C
High Pulse Width  Fast    FDRE/C   n/a            0.500         5.000       4.500      SLICE_X12Y13   inst_circuito/inst_datapath/accum_reg[6]/C



