# compile vhdl design source files
vhdl xil_defaultlib  \
"../../../../Lab0.srcs/sources_1/imports/DesignFiles/circuito.vhd" \
"../../../../Lab0.srcs/sources_1/imports/DesignFiles/control.vhd" \
"../../../../Lab0.srcs/sources_1/new/datapath.vhdl" \
"../../../../Lab0.srcs/sim_1/imports/DesignFiles/circuito_tb.vhd" \

# Do not sort compile order
nosort
